{
  "persons": [
    {
      "id": 1,
      "name": "Bertolacci"
    },
    {
      "id": 2,
      "name": "Gasperini"
    },
    {
      "id": 3,
      "name": "Napoleone"
    }
  ],
  "roles": [
    "player",
    "player",
    "coach",
    "scout"
  ],
  "personsRoles": [],
  "groups": [
    {
      "meta": {
        "self": "https://restbeta.wyscout.com/v1/groups.json",
        "type": "groups",
        "fetch": [
          "subgroups"
        ],
        "total_items": 123,
        "page_size": 20,
        "page_current": 0,
        "page_count": 14,
        "first": "https://restbeta.wyscout.com/v1/groups.json",
        "last": "https://restbeta.wyscout.com/v1/groups.json?page=13",
        "next": "https://restbeta.wyscout.com/v1/groups.json?page=1"
      },
      "elements": [
        {
          "meta": {
            "name": "Milan AC"
          },
          "subgroups": [
            {
              "1": "Milan - Prima Squadra"
            },
            {
              "2": "Milan - Academy"
            },
            {
              "3": "Milan - Pulcini"
            }
          ]
        },
        {
          "meta": {
            "name": "Como Calcio"
          },
          "subgroup": [
            {
              "1": "Como - Prima Squadra"
            },
            {
              "2": "Como - Academy"
            },
            {
              "3": "Como - Pulcini"
            }
          ]
        }
      ]
    }
  ]
}